<?xml version="1.0" standalone="no"?>
<!DOCTYPE svg PUBLIC "-//W3C//DTD SVG 1.1//EN" "http://www.w3.org/Graphics/SVG/1.1/DTD/svg11.dtd" >
<svg xmlns="http://www.w3.org/2000/svg">
<metadata>Generated by IcoMoon</metadata>
<defs>
<font id="StoreFeeder-Web-Icons" horiz-adv-x="1024">
<font-face units-per-em="1024" ascent="960" descent="-64" />
<missing-glyph horiz-adv-x="1024" />
<glyph unicode="&#x20;" horiz-adv-x="512" d="" />
<glyph unicode="&#xe900;" glyph-name="team" horiz-adv-x="1293" d="M645.883 599.842c-0.033 0-0.072 0-0.111 0-8.154 0-16.185 0.523-24.063 1.539-88.056 11.81-155.97 87.244-155.97 178.54 0 99.491 80.653 180.144 180.144 180.144 8.195 0 16.262-0.547 24.166-1.607 79.943-11.135 143.186-74.345 154.362-154.243l0.109-0.955c0.958-6.981 1.505-15.047 1.505-23.242 0-99.497-80.649-180.157-180.142-180.175zM645.883 911.979c-72.899-0.046-131.978-59.152-131.978-132.058 0-72.933 59.124-132.058 132.058-132.058s132.058 59.124 132.058 132.058c0 6.096-0.413 12.095-1.213 17.971l0.076-0.684c-8.293 59.326-54.803 105.673-113.508 113.638-5.694 0.738-11.495 1.121-17.383 1.133zM264.116 556.624c-7.010 0.001-13.912 0.455-20.681 1.333-75.13 10.052-133.087 74.41-133.087 152.304 0 84.868 68.799 153.667 153.667 153.667s153.667-68.799 153.667-153.667c0-42.402-17.173-80.792-44.944-108.595-27.693-27.824-66.023-45.042-108.375-45.042-0.087 0-0.174 0-0.261 0zM264.116 815.937c-0.015 0-0.033 0-0.051 0-58.347 0-105.646-47.299-105.646-105.646s47.299-105.646 105.646-105.646c58.347 0 105.646 47.299 105.646 105.646 0 4.877-0.33 9.676-0.97 14.377l0.061-0.547c-6.581 47.347-43.605 84.371-90.394 90.888-4.649 0.609-9.383 0.923-14.19 0.928zM1022.847 556.624c-7.010 0.001-13.912 0.455-20.681 1.333-75.13 10.052-133.087 74.41-133.087 152.304 0 84.868 68.799 153.667 153.667 153.667s153.667-68.799 153.667-153.667c0-42.402-17.173-80.792-44.944-108.595-27.693-27.824-66.023-45.042-108.375-45.042-0.087 0-0.174 0-0.261 0zM1022.847 815.937c-0.015 0-0.033 0-0.051 0-58.347 0-105.646-47.299-105.646-105.646s47.299-105.646 105.646-105.646c58.347 0 105.646 47.299 105.646 105.646 0 4.877-0.33 9.676-0.97 14.377l0.061-0.547c-6.421 47.423-43.528 84.531-90.406 90.891-4.637 0.606-9.372 0.92-14.178 0.925zM645.883-64c-223.682 0-297.154 37.552-300.131 39.185l-12.774 6.723v459.465c0 77.794 70.303 117.267 107.375 127.256l3.073 0.864h112.081l6.147-14.887c30.829-74.913 65.213-115.25 83.845-133.114 18.632 17.96 53.015 58.201 83.845 133.114l6.147 14.887h112.081l3.073-0.864c37.168-9.604 107.375-49.462 107.375-127.256v-459.465l-12.774-6.723c-3.073-1.633-76.449-39.089-299.363-39.185zM380.999 12.834c28.044-9.604 105.646-28.813 264.116-28.813s236.84 19.208 264.884 28.813v428.539c0 54.072-56.185 75.777-69.246 80.099h-73.376c-47.061-106.703-101.901-146.848-108.239-151.17l-13.638-9.604-13.638 9.604c-6.339 4.418-61.083 44.467-108.239 151.17h-73.472c-13.254-4.322-69.15-25.835-69.15-80.099zM1074.998 34.827c-1.151-0.017-2.509-0.027-3.869-0.027-19.023 0-37.594 1.933-55.529 5.614l-17.436 3.826v19.208c0 62.235 2.593 376.293 52.631 444.771l7.203 9.604h137.34c33.711-4.898 97.387-34.575 97.387-111.793v-334.899l-17.48-4.994c-4.706-1.537-110.544-31.31-200.248-31.31zM1046.858 84.097c65.981-6.819 159.91 14.022 198.423 23.626v298.403c0 50.422-44.66 62.043-54.936 64.060h-105.646c-26.027-58.201-36.688-255.184-37.841-386.089zM218.4 34.827c-89.607 0-195.446 29.677-200.92 31.31l-17.48 4.994v334.995c0 76.834 63.676 106.895 97.387 111.793h137.34l7.203-9.604c50.134-68.478 52.631-382.535 52.631-444.771v-19.208l-19.208-4.13c-16.294-3.429-35.016-5.392-54.197-5.392-0.969 0-1.937 0.005-2.904 0.015zM48.021 107.723c38.417-9.604 132.538-30.445 198.423-23.626-1.056 130.809-11.717 327.887-37.841 386.089h-105.646c-9.988-1.921-54.936-13.446-54.936-64.060z" />
<glyph unicode="&#xe901;" glyph-name="meeting" horiz-adv-x="1030" d="M119.979 719.957c-66.226 0.049-119.893 53.746-119.893 119.979 0 66.262 53.716 119.979 119.979 119.979 66.232 0 119.93-53.668 119.979-119.889-0.049-66.295-53.774-120.020-120.059-120.069zM119.979 917.333c-42.698 0-77.312-34.614-77.312-77.312s34.614-77.312 77.312-77.312c42.698 0 77.312 34.614 77.312 77.312-0.049 42.679-34.633 77.263-77.307 77.312zM369.835-64c-34.442 1.457-63.018 24.967-72.058 56.707l-1.244 3.88v154.709c-1.625 9.425-9.509 16.579-19.151 17.065l-167.302 0.002c-29.952 2.133-86.613 22.016-86.613 83.371v347.221c5.12 28.928 31.829 83.712 96.171 83.712 46.348-3.632 83.802-37.63 92.649-81.95l0.706-3.042v-279.808h166.656l3.925-1.621c2.475-1.024 59.733-25.6 59.733-78.421v-243.797l-1.28-3.584c-6.827-20.309-30.208-54.443-70.315-54.443zM339.2 3.755c9.387-24.149 27.307-25.088 31.232-25.088 17.067 0 27.221 17.067 30.635 23.637v235.52c0 19.456-21.931 32.939-30.464 37.376h-199.936v317.44c-5.058 25.133-25.512 44.287-50.919 47.333-40.815 0.027-51.481-38.373-53.615-46.906v-341.333c0-34.816 39.168-39.936 46.165-40.533h165.035c41.131 0 58.283-35.243 61.525-53.931v-3.669zM910.421 719.957c-66.262 0-119.979 53.716-119.979 119.979s53.716 119.979 119.979 119.979c66.262 0 119.979-53.716 119.979-119.979-0.097-66.223-53.755-119.882-119.969-119.979zM910.421 917.248c-42.698 0-77.312-34.614-77.312-77.312s34.614-77.312 77.312-77.312c42.698 0 77.312 34.614 77.312 77.312 0 42.715-34.603 77.349-77.307 77.397zM660.565-64h-1.877c-40.021 0-63.232 34.133-70.656 54.528l-1.28 3.584v243.712c0 53.077 57.685 77.397 59.733 78.421l3.925 1.621h166.656v279.808l0.597 2.389c8.88 44.743 45.961 78.632 91.607 82.576l0.383 0.027c65.109 0 91.819-54.784 96.939-83.712v-347.221c0-61.355-56.661-81.237-86.613-83.2h-166.912c-9.64-0.615-17.457-7.704-19.18-16.938l-0.020-154.923-1.109-3.328c-9.144-32.328-37.729-55.875-72.031-57.339zM629.333 2.389c3.413-6.912 13.397-23.637 29.867-23.637h1.195c3.243 0 21.419 0.939 30.805 25.088v153.6c3.328 18.603 20.395 53.931 61.525 53.931h165.035c6.656 0.597 46.165 5.632 46.165 40.533v341.163c-2.133 9.131-13.141 46.592-53.248 46.933-5.717-0.427-40.192-4.779-51.2-47.36v-317.44h-199.68c-8.533-4.523-30.464-17.92-30.464-37.376zM512.512 719.957c-66.226 0.049-119.893 53.746-119.893 119.979 0 66.262 53.716 119.979 119.979 119.979 66.232 0 119.93-53.668 119.979-119.889-0.049-66.295-53.774-120.020-120.059-120.069zM512.512 917.333c-42.698 0-77.312-34.614-77.312-77.312s34.614-77.312 77.312-77.312c42.698 0 77.312 34.614 77.312 77.312-0.049 42.679-34.633 77.263-77.307 77.312zM731.733 515.072h-433.067v97.195c0 41.472 39.424 63.317 62.635 69.632l2.731 0.768h82.517l68.267-73.813 68.267 73.813h82.517l2.731-0.768c23.296-6.315 62.635-28.16 62.635-69.632zM529.067 557.739h160v54.528c0 15.957-21.76 25.088-29.013 27.733h-57.685l-67.413-72.533zM341.333 557.739h160.171l-6.059 9.728-67.413 72.533h-57.685c-7.168-2.56-29.013-11.691-29.013-27.733zM731.733 371.2h-433.067v103.509h433.067zM341.333 413.867h347.733v18.176h-347.733z" />
<glyph unicode="&#xe902;" glyph-name="checklist" horiz-adv-x="723" d="M185.612 841.58h257.69v-73.3h-257.69v73.3zM246.125 798.089l-20.198 13.683 46.668 68.82c-13.357 10.914-33.229 31.112-27.121 50.903s32.252 28.506 82.992 28.506v-24.433c-54.731 0-59.699-11.076-59.699-11.158-1.547-5.050 12.217-20.605 27.284-30.867l10.099-6.841zM402.335 798.089l-60.269 88.611 10.099 6.841c15.312 10.181 29.076 25.736 27.528 30.867 0 0-4.968 11.158-59.617 11.158v24.433c50.658 0 77.046-9.040 82.992-28.506s-13.764-39.989-27.121-50.903l46.668-68.82zM282.205 5.961h-282.205v819.33h137.967v-40.722h-97.245v-737.886h241.483v-40.722zM631.682 376.451h-40.722v408.118h-105.715v40.722h146.437v-448.84zM236.026 651.652h299.715v-40.722h-299.715v40.722zM236.026 500.409h299.715v-40.722h-299.715v40.722zM236.026 349.167h148.473v-40.722h-148.473v40.722zM236.026 195.156h63.038v-40.722h-63.038v40.722zM140.084 578.515c-29.552 0-53.509 23.957-53.509 53.509s23.957 53.509 53.509 53.509c29.552 0 53.509-23.957 53.509-53.509-0.046-29.534-23.975-53.463-53.505-53.509zM140.084 661.181c-16.058 0-29.076-13.018-29.076-29.076s13.018-29.076 29.076-29.076c16.058 0 29.076 13.018 29.076 29.076-0.092 16.004-13.065 28.948-29.071 28.994zM140.084 427.272c-29.552 0-53.509 23.957-53.509 53.509s23.957 53.509 53.509 53.509c29.552 0 53.509-23.957 53.509-53.509-0.046-29.534-23.975-53.463-53.505-53.509zM140.084 509.938c-16.058 0-29.076-13.018-29.076-29.076s13.018-29.076 29.076-29.076c16.058 0 29.076 13.018 29.076 29.076-0.092 16.004-13.065 28.948-29.071 28.994zM140.084 275.867c-29.552 0-53.509 23.957-53.509 53.509s23.957 53.509 53.509 53.509c29.552 0 53.509-23.957 53.509-53.509-0.046-29.534-23.975-53.463-53.505-53.509zM140.084 358.452c-16.058 0-29.076-13.018-29.076-29.076s13.018-29.076 29.076-29.076c16.058 0 29.076 13.018 29.076 29.076 0 0.024 0 0.053 0 0.082 0 16.074-13.008 29.111-29.071 29.157zM140.084 124.788c-29.552 0-53.509 23.957-53.509 53.509s23.957 53.509 53.509 53.509c29.552 0 53.509-23.957 53.509-53.509 0-0.057 0-0.115 0-0.172-0.139-29.455-24.032-53.291-53.505-53.337zM140.084 207.373c-16.058 0-29.075-13.018-29.075-29.076s13.018-29.076 29.076-29.076c16.001 0 28.983 12.925 29.075 28.904 0 0.033 0 0.062 0 0.090 0 16.074-13.008 29.111-29.071 29.157zM534.275-64c-104.040 0-188.381 84.341-188.381 188.381s84.341 188.381 188.381 188.381c104.040 0 188.381-84.341 188.381-188.381-0.139-103.984-84.397-188.242-188.368-188.381zM534.275 272.121c-81.55 0-147.659-66.109-147.659-147.659s66.109-147.659 147.659-147.659c81.521 0 147.612 66.063 147.659 147.573-0.093 81.517-66.146 147.57-147.65 147.663zM484.431 33.57l-70.124 82.91 18.651 15.8 53.102-62.794 136.256 134.302 17.185-17.348-155.070-152.871z" />
<glyph unicode="&#xe903;" glyph-name="stack" horiz-adv-x="1015" d="M491.818 501.876l-454 230.51 482.078 227.614 478.218-228.843zM137.499 730.982l355.373-180.407 401.264 181.284-374.414 179.529zM489.098 216.788l-489.098 232.001 121.967 66.95 367.306-169.965 401.527 178.476 124.073-58.878zM96.521 451.598l392.577-186.286 423.464 199.886-22.2 10.53-401.44-178.301-365.288 169.087zM489.098-64l-489.098 232.001 121.967 66.95 367.306-169.965 401.527 178.476 124.073-58.878zM96.521 170.809l392.753-186.286 423.288 199.886-22.2 10.53-401.44-178.301-365.288 169.087z" />
<glyph unicode="&#xe904;" glyph-name="document" horiz-adv-x="800" d="M517.52-64c-21.461 0.431-41.521 6.030-59.111 15.596-24.916 9.928-352.022 138.535-413.759 165.958-23.556 10.618-38.251 25.946-42.892 45.564-7.032 31.009 14.063 58.783 17.438 63.284 27.001 35.931 55.76 55.76 85.433 58.994 2.495 0.294 5.386 0.461 8.316 0.461 5.194 0 10.264-0.526 15.162-1.528l-2.313 133.682-112.504 89.792-1.195 1.547c-7.676 8.489-12.374 19.798-12.374 32.204s4.697 23.715 12.411 32.246c9.991 13.562 25.953 22.29 43.954 22.29 6.381 0 12.507-1.097 18.198-3.112l2.572-0.937 50.768-43.103v292.933l0.844 2.602c31.501 97.527 113.067 118.059 151.951 115.528h2.672l2.461-0.984 491.573-191.468 2.883-3.305c12.155-13.383 19.597-31.24 19.597-50.834 0-5.101-0.504-10.083-1.466-14.901-8.147-43.675-50.547-80.731-77.266-94.865s-56.252-5.766-77.347 4.008v-534.395c0-55.69-29.181-88.105-72.917-119.536-14.618-11.018-33.071-17.665-53.075-17.719zM112.996 250.801c-0.799 0.053-1.732 0.083-2.672 0.083s-1.873-0.030-2.798-0.090c-19.070-2.455-40.024-18.135-60.486-45.347l-0.492-0.633c-3.938-4.922-13.711-20.532-10.618-33.4 1.969-8.297 9.703-15.54 22.923-21.095 62.229-27.634 410.641-164.748 414.156-166.155l2.531-1.195c0.352 0 42.189-24.118 74.534-0.914 43.103 31.079 58.362 54.986 58.362 91.41v598.242l28.126-20.251c11.11-8.016 47.533-28.126 68.135-17.438s53.58 41.064 59.135 70.807c0.518 2.412 0.814 5.182 0.814 8.022 0 9.32-3.192 17.894-8.543 24.689l-480.539 187.305c-14.063 0-84.027-3.656-112.504-88.456v-363.389l-103.293 87.683c-1.048 0.209-2.253 0.329-3.486 0.329-6.664 0-12.511-3.498-15.805-8.759l-2.014-2.398c-2.106-2.274-3.397-5.328-3.397-8.684s1.292-6.41 3.405-8.692l122.2-97.378 3.024-216.008-29.532 25.313c-5.73 4.008-12.845 6.404-20.519 6.404-0.227 0-0.454-0.002-0.68-0.006zM54.369 526.38l13.627 16.102 213.303-180.511-13.627-16.102-213.303 180.511zM330.903 289.615l-54.424 46.267 21.095 28.196 48.377-59.768-15.047-14.696zM221.334 703.136l12.473 32.871 321.146-121.863-12.473-32.871-321.146 121.863zM221.365 625.772l12.473 32.871 321.146-121.863-12.473-32.871-321.146 121.863zM221.362 555.472l12.473 32.871 321.146-121.863-12.473-32.871-321.146 121.863zM221.358 485.172l12.473 32.871 321.146-121.863-12.473-32.871-321.146 121.863zM221.363 421.873l12.473 32.871 143.644-54.508-12.473-32.871-143.644 54.508zM538.052 10.745l-54.002 21.095 4.992 13.149 47.885-18.141c18.423 10.547 29.11 21.516 30.165 31.15 0.045 0.435 0.070 0.941 0.070 1.452 0 3.813-1.412 7.297-3.741 9.956l-408.094 159.317 5.133 13.079 410.711-160.741 0.914-0.844c5.677-5.382 9.21-12.977 9.21-21.398 0-1.008-0.051-2.003-0.149-2.985-1.677-15.135-15.178-29.76-40.21-43.331zM493.824-35.593c-9.193 1.592-16.803 7.257-21.017 15.033-8.656 16.961 0.696 39.602 1.821 42.345 37.478 76.925 94.082 60.33 94.644 60.19l-4.149-13.43c-1.828 0.563-45.916 12.727-77.769-52.596-2.109-4.922-7.032-20.462-2.109-29.743 2.358-4.161 6.471-7.091 11.307-7.795zM620.11 657.645l-14.063 2.32c0 0.984 17.368 96.121 142.177 106.528l1.195-14.063c-113.911-9.703-129.169-94.082-129.31-94.785zM660.963 616.51c-2.461 36.494 4.922 63.776 21.938 81.073 5.735 5.927 12.637 10.686 20.34 13.913l-37.778 16.463 5.555 12.938 95.418-41.064-39.587 2.109c-13.324-0.144-25.339-5.629-34.028-14.41-14.067-14.067-19.903-37.834-17.794-70.319z" />
<glyph unicode="&#xe905;" glyph-name="web-page" horiz-adv-x="1299" d="M1298.916-64h-1298.916v1024h1298.916zM50.443-13.557h1198.030v923.113h-1198.030zM25.222 712.626h1248.473v-50.443h-1248.473v50.443zM133.675 604.374h466.601v-50.443h-466.601v50.443zM133.675 503.488h466.601v-50.443h-466.601v50.443zM133.675 402.601h466.601v-50.443h-466.601v50.443zM133.675 301.714h466.601v-50.443h-466.601v50.443zM133.675 200.828h466.601v-50.443h-466.601v50.443zM133.675 99.941h466.601v-50.443h-466.601v50.443zM726.384 553.931h416.158v-80.709h-416.158v80.709zM726.384 362.246h416.158v-80.709h-416.158v80.709zM726.384 180.65h416.158v-80.709h-416.158v80.709zM413.635 841.458h201.773v-50.443h-201.773v50.443zM686.030 841.458h201.773v-50.443h-201.773v50.443zM958.424 841.458h201.773v-50.443h-201.773v50.443zM104.115 724.934l16.344 75.867-38.74 47.215h56.093l26.231 38.539 20.984-38.539h59.422l-41.767-46.004 21.691-67.796-61.238 37.025-59.019-46.307z" />
<glyph unicode="&#xe906;" glyph-name="list-cart" horiz-adv-x="965" d="M527.565-64h-455.761c-1.29-0.085-2.797-0.134-4.315-0.134-20.376 0-38.709 8.749-51.446 22.696-10.027 12.763-16.051 28.989-16.051 46.623 0 3.135 0.19 6.226 0.56 9.261l-0.036 862.571c-0.015 0.596-0.024 1.298-0.024 2.002 0 37.696 24.877 69.581 59.109 80.135l3.518 0.846h459.631c49.274 0 69.912-48.242 73.954-73.782v-176.113h-42.996v170.781c-1.462 6.793-8.599 36.117-31.215 36.117h-453.095c-15.265-6.119-25.849-20.791-25.849-37.935 0-0.722 0.019-1.439 0.056-2.151l-0.004-865.502v-1.634c-0.197-1.365-0.31-2.942-0.31-4.545 0-7.039 2.174-13.57 5.887-18.958 5.154-4.587 12.104-7.461 19.726-7.461 1.144 0 2.272 0.065 3.383 0.191l451.067-0.013c17.817 4.619 30.762 20.555 30.762 39.515 0 1.225-0.054 2.438-0.16 3.636l0.011 111.033h42.996v-111.274c0.051-1.096 0.080-2.38 0.080-3.671 0-40.569-28.784-74.415-67.044-82.23zM286.011 613.020h-170.781v178.435h118.326v-25.798h-92.528v-126.839h119.186v46.35h25.798v-72.148zM200.019 662.552l-41.792 44.544 18.832 17.628 24.078-25.626 107.061 100.869 17.714-18.746-125.893-118.67zM286.011 360.374h-170.781v166.396h170.781zM141.028 386.171h119.186v114.8h-119.186zM286.011 105.663h-170.781v166.396h170.781zM141.028 131.461h119.186v114.8h-119.186zM736.097 275.843l-327.89 60.195 55.551 286.183 155.819-30.269-17.628-79.801 19.176-2.666 15.221 74.9 154.185-24.164zM458.685 370.435l243.187-44.888 37.665 199.073-69.826 10.921-15.049-74.298-105.341 14.877 18.23 82.381-69.74 13.673zM810.394 274.897l-42.308 7.911 73.61 390.922h123.571v-42.996h-87.884l-66.988-355.837zM414.367 257.657l7.548 42.329 221.802-39.549-7.548-42.329-221.802 39.549zM740.998 90.443c-44.69 0-80.919 36.229-80.919 80.919s36.229 80.919 80.919 80.919c44.69 0 80.919-36.229 80.919-80.919-0.049-44.671-36.248-80.87-80.914-80.919zM740.998 209.285c-20.944 0-37.923-16.979-37.923-37.923s16.979-37.923 37.923-37.923c20.944 0 37.923 16.979 37.923 37.923-0.049 20.924-16.998 37.874-37.918 37.923z" />
<glyph unicode="&#xe907;" glyph-name="home-list" horiz-adv-x="988" d="M963.339 653.17l-472.236 247.051-466.328-246.963-24.776 46.73 491.016 260.012 496.835-259.924-24.511-46.906zM916.081-64h-850.835v632.175l425.858 244.141 424.977-244.141zM109.33-19.915h762.666v562.521l-380.98 218.837-381.686-218.837zM473.029 321.741h-224.832v198.646h81.557v-67.89c0.882-7.671 4.585-11.638 11.021-11.638h39.676c6.11 0.096 11.027 5.072 11.027 11.196 0 0.124-0.002 0.248-0.006 0.372v67.961h81.557zM292.282 365.826h136.663v60.749c-8.535-17.82-26.427-29.907-47.142-29.907-0.475 0-0.949 0.006-1.421 0.019l-39.607-0.001c-0.402-0.011-0.876-0.018-1.351-0.018-20.715 0-38.607 12.087-47.007 29.594zM728.721 321.741h-224.832v198.646h81.557v-67.89c0.882-7.671 4.585-11.638 11.021-11.638h39.676c6.11 0.096 11.027 5.072 11.027 11.196 0 0.124-0.002 0.248-0.006 0.372v67.961h81.557zM547.973 365.826h136.663v60.749c-8.535-17.82-26.427-29.907-47.142-29.907-0.475 0-0.949 0.006-1.421 0.019l-39.607-0.001c-0.402-0.011-0.876-0.018-1.351-0.018-20.715 0-38.607 12.087-47.007 29.594zM728.721 74.867h-224.832v198.646h81.557v-67.89c0.882-7.671 4.585-11.638 11.021-11.638h39.676c6.11 0.096 11.027 5.072 11.027 11.196 0 0.124-0.002 0.248-0.006 0.372v67.961h81.557zM547.973 118.952h136.663v60.749c-8.535-17.82-26.427-29.907-47.142-29.907-0.475 0-0.949 0.006-1.421 0.019l-39.607-0.001c-0.402-0.011-0.876-0.018-1.351-0.018-20.715 0-38.607 12.087-47.007 29.594zM473.029 74.867h-224.832v198.646h81.557v-67.89c0.882-7.671 4.585-11.638 11.021-11.638h39.676c6.11 0.096 11.027 5.072 11.027 11.196 0 0.124-0.002 0.248-0.006 0.372v67.961h81.557zM292.282 118.952h136.663v60.749c-8.535-17.82-26.427-29.907-47.142-29.907-0.475 0-0.949 0.006-1.421 0.019l-39.607-0.001c-0.402-0.011-0.876-0.018-1.351-0.018-20.715 0-38.607 12.087-47.007 29.594z" />
<glyph unicode="&#xe908;" glyph-name="delivery-truck" horiz-adv-x="1252" d="M280.641 846.212l-15.67 17.184c-34.991 38.285-65.886 56.003-89.036 51.374-28.491-5.609-42.648-43.538-42.737-43.895l-42.203 14.958c0.89 2.493 22.437 61.702 75.68 72.475 36.149 7.301 75.413-9.616 116.993-50.394 12.144 7.799 26.966 12.432 42.871 12.432s30.727-4.633 43.191-12.624c24.877 21.026 76.34 57.175 124.953 46.49 30.628-6.678 53.243-29.827 67.4-68.112l-41.847-15.136c-12.732 34.813-29.56 38.552-35.080 39.799-33.923 7.479-84.139-33.21-99.097-48.079l-15.759-15.759-15.759 15.67c-7.052 7.995-17.319 13.013-28.759 13.013s-21.707-5.017-28.722-12.971zM309.31 658.080h-294.263v116.637c-0.005 0.252-0.008 0.549-0.008 0.847 0 12.505 4.809 23.886 12.68 32.395 9.45 9.47 22.557 15.349 37.037 15.349 0.93 0 1.854-0.024 2.772-0.072l241.782 0.005zM59.565 702.598h205.227v76.037h-197.303c-0.435 0.051-0.938 0.080-1.449 0.080-2.167 0-4.212-0.523-6.015-1.45l-0.46-0.945v-73.722zM636.606 658.080h-294.263v165.072h241.91c0.79 0.043 1.714 0.067 2.644 0.067 14.48 0 27.587-5.879 37.065-15.38 7.842-8.479 12.652-19.86 12.652-32.365 0-0.298-0.003-0.595-0.008-0.891zM386.86 702.598h205.227v73.9c0 0.712-0.979 2.137-7.924 2.137h-197.303zM309.31 270.507h-241.821c-0.79-0.043-1.714-0.067-2.644-0.067-14.48 0-27.587 5.879-37.065 15.38-7.894 8.491-12.738 19.909-12.738 32.458 0 0.234 0.002 0.467 0.005 0.7v297.433h294.263zM59.565 317.874c0-1.336 0.534-2.938 7.924-2.938h197.303v256.957h-205.227zM584.252 270.507h-241.91v345.904h294.263v-297.468c0.005-0.252 0.008-0.549 0.008-0.847 0-12.505-4.809-23.886-12.68-32.395-9.441-9.42-22.514-15.265-36.953-15.265-0.96 0-1.913 0.026-2.86 0.077zM386.86 315.025h197.392c0.435-0.051 0.938-0.080 1.449-0.080 2.167 0 4.212 0.523 6.015 1.45l0.46 0.945v254.553h-205.316zM1210.085 144.166h-126.342v44.518h124.116v32.943h-17.807c-31.608 0-48.079 26.711-48.079 52.442v196.235c0.054 1.399 0.085 3.042 0.085 4.692 0 27.713-8.732 53.387-23.595 74.42l-1.776 2.355c-0.534 0.801-52.086 82.447-94.556 147.621-33.745 51.73-72.831 59.387-78.886 60.277h-186.441c-0.46 0.027-0.998 0.042-1.54 0.042-3.843 0-7.506-0.768-10.845-2.159l0.187-483.128h-44.518v492.546c2.137 13.979 16.472 37.573 56.449 37.573h189.824c2.582 0 64.551-6.054 112.986-80.132 39.977-61.257 87.878-137.026 94.2-146.998 20.582-28.301 32.927-63.747 32.927-102.077 0-1.77-0.026-3.534-0.079-5.291l0.006-195.621c0.118-2.906 0.963-5.592 2.357-7.91l26.669 0.075c20.426-0.726 36.709-17.459 36.709-37.996 0-1.042-0.042-2.074-0.124-3.095l0.009-43.404c-2.476-21.264-20.25-37.651-41.908-37.929zM1000.495 468.523h-147.443c-28.655 0.402-51.73 23.725-51.73 52.437 0 0.002 0 0.003 0 0.005 0 26.71 0 114.233 0 127.588-0.336 2.198-0.528 4.733-0.528 7.314 0 11.706 3.949 22.489 10.588 31.090 8.273 9.592 20.581 15.703 34.317 15.703 0.833 0 1.66-0.022 2.481-0.067l72.004 0.005c10.239 0.712 32.32-3.027 61.346-38.196l0.979-1.336 67.578-94.823 0.89-2.048c1.692-3.918 16.294-38.998 0-67.667-6.5-11.397-20.3-25.82-49.237-29.382zM854.743 513.041h142.457c5.899 0.235 11.132 2.898 14.76 7.011 1.088 3.349 1.704 7.175 1.704 11.145 0 5.412-1.144 10.556-3.204 15.204l-63.922 90.22c-14.246 17.095-22.971 20.745-25.019 21.458h-75.591c-0.061-0.534-0.095-1.153-0.095-1.781s0.035-1.246 0.102-1.856l-0.007-2.062v-2.137s0-100.432 0-129.102c-0.089-2.315-0.089-7.123 8.815-8.102zM0 188.683h198.105v-44.518h-198.105v44.518zM522.462 188.683h233.986v-44.518h-233.986v44.518zM917.068-63.911c-78.677 0-142.457 63.78-142.457 142.457s63.78 142.457 142.457 142.457c78.677 0 142.457-63.78 142.457-142.457-0.302-78.555-63.902-142.155-142.428-142.457zM917.068 177.198c-54.090 0-97.939-43.849-97.939-97.939s43.849-97.939 97.939-97.939c54.090 0 97.939 43.849 97.939 97.939-0.301 53.969-43.971 97.638-97.91 97.939zM357.211-63.911c-78.677 0-142.457 63.78-142.457 142.457s63.78 142.457 142.457 142.457c78.677 0 142.457-63.78 142.457-142.457-0.302-78.555-63.902-142.155-142.428-142.457zM357.211 177.198c-54.090 0-97.939-43.849-97.939-97.939s43.849-97.939 97.939-97.939c54.090 0 97.939 43.849 97.939 97.939-0.301 53.969-43.971 97.638-97.91 97.939z" />
<glyph unicode="&#xe909;" glyph-name="pyramid" horiz-adv-x="1148" d="M607.775 640.884h-20.763c-3.776 0.016-7.479 0.251-11.119 0.691-2.786-0.447-6.546-0.682-10.358-0.691h-20.614v10.018c-40.394 21.005-52.432 68.994-55.825 88.868l-8.079 7.19c-8.968 7.352-37.567 30.619-31.588 59.38 2.508 10.701 8.884 19.606 17.54 25.353-6.471 39.844 1.607 101.486 66.239 126.934l3.555 1.373h79.254l3.555-1.373c64.631-25.449 72.225-87.010 66.085-127 8.748-5.77 15.108-14.552 17.634-24.841 6.037-29.046-22.562-52.313-32.256-59.988l-8.079-6.867c-3.393-19.713-15.754-67.701-55.906-88.868zM576.429 682.248h0.404l4.282 1.293c37.324 11.391 43.303 67.782 43.303 68.347l0.808 8.079 20.278 17.45c7.639 5.147 13.769 11.975 17.955 19.98-1.712 1.817-3.889 3.028-6.259 3.812l-18.967 5.938 5.413 19.147c2.020 7.19 18.178 69.479-35.143 93.311h-63.904c-53.321-23.833-37.244-86.121-35.143-93.311l5.655-19.793-19.551-5.574c-2.451-0.809-4.573-1.992-6.417-3.502 4.235-8.152 10.234-14.875 17.542-19.808l20.949-17.892 0.727-8.079c0-0.485 5.978-56.552 43.303-68.347l4.282-1.293zM579.418 329.846h-5.817c-7.352 0-11.876 0-12.361 0l-19.955 1.373v2.101c-52.702 10.277-99.183 31.689-138.726 61.755-96.128 70.739-77.95 187.318-75.85 198.628 12.603 91.615 151.56 119.891 157.458 121.022l15.673 2.908 6.625-14.461c14.138-30.942 31.185-42.414 44.434-46.211v6.948l22.702-6.867 21.975 6.059v-6.14c13.249 3.716 30.457 15.188 44.676 46.292l6.625 14.542 15.673-3.070c5.898-1.131 145.42-29.488 157.458-121.183 2.020-11.31 20.601-127.889-76.669-199.226-38.881-29.521-85.569-50.919-136.383-60.74l-2.090-1.629-19.066-2.101s-2.585 0-6.382 0zM573.602 370.241h3.555l5.494 0.727c52.422 6.501 99.223 26.539 137.994 56.471 78.439 57.522 60.908 155.034 60.1 159.154v1.293c-6.302 49.12-79.092 74.73-110.681 83.617-34.335-58.895-81.597-57.764-96.462-55.906h-0.727c-14.623-1.939-62.046-2.908-95.735 55.987-38.375-10.503-105.026-37.89-110.6-83.778v-1.293c-0.808-4.039-18.258-101.552 60.834-159.558 38.118-29.448 84.919-49.486 135.966-55.847l8.646-0.867h1.616zM647.039 135.953h-142.835v76.911c-97.187 14.404-180.159 66.136-235.316 139.88l-54.717-30.331-54.371 92.907 150.267 93.958 8.887-22.54c2.504-6.221 63.581-153.499 251.819-164.971h9.695c188.157 11.472 249.315 158.75 251.658 164.971l8.968 22.379 150.267-93.796-54.209-92.988-54.048 31.265c-55.856-74.664-138.857-126.372-234.113-140.497zM544.598 176.347h62.046v74.649l19.713 0.485c5.736 0 142.673 5.655 234.288 140.25l10.583 15.511 51.382-29.73 14.3 24.237-77.477 48.473c-26.337-47.665-105.349-158.67-277.187-168.849h-13.249c-171.757 10.179-250.446 121.183-277.106 168.93l-77.477-48.473 14.3-24.237 51.382 29.73 10.745-15.592c91.372-134.594 228.31-140.088 234.288-140.25l19.632-0.566zM569.885-64c-51.891 0-93.958 42.066-93.958 93.958s42.066 93.958 93.958 93.958c51.891 0 93.958-42.066 93.958-93.958 0-0.028 0-0.057 0-0.085-0.092-51.834-42.113-93.827-93.953-93.872zM569.885 83.44c-29.582 0-53.563-23.981-53.563-53.563s23.981-53.563 53.563-53.563c29.582 0 53.563 23.981 53.563 53.563s-23.981 53.563-53.563 53.563zM1054.053 223.77c-0.024 0-0.052 0-0.081 0-51.891 0-93.958 42.066-93.958 93.958s42.066 93.958 93.958 93.958c51.891 0 93.957-42.066 93.958-93.957-0.046-51.845-42.039-93.866-93.868-93.958zM1054.053 371.21c-29.582 0-53.563-23.981-53.563-53.563s23.981-53.563 53.563-53.563c29.582 0 53.563 23.981 53.563 53.563s-23.981 53.563-53.563 53.563zM93.958 223.77c-0.024 0-0.052 0-0.081 0-51.891 0-93.958 42.066-93.958 93.958s42.066 93.958 93.958 93.958c51.891 0 93.957-42.066 93.958-93.957-0.046-51.845-42.039-93.866-93.868-93.958zM93.958 371.21c-29.582 0-53.563-23.981-53.563-53.563s23.981-53.563 53.563-53.563c29.582 0 53.563 23.981 53.563 53.563s-23.981 53.563-53.563 53.563z" />
<glyph unicode="&#xe90a;" glyph-name="jigsaw" horiz-adv-x="1020" d="M1019.595-64h-777.064v400.773h83.103c-1.271 35.071 5.422 97.25 63.958 126.221 15.911 7.976 34.669 12.645 54.518 12.645 30.271 0 58.006-10.86 79.52-28.897 23.3-20.037 38.086-49.788 38.086-82.992 0-5.844-0.458-11.58-1.34-17.176l206.609 0.619-11.097-28.802s-15.248-41.34 1.101-72.514c8.471-16.942 25.414-28.209 50.319-34.478 6.946-1.355 54.131-8.471 75.309 36.341 6.184 22.872 8.471 53.284 2.795 61.67l-24.397 33.885h158.412zM284.887-21.644h692.352v321.906h-46.507c0.152-2.936 0.239-6.374 0.239-9.833 0-20.008-2.903-39.337-8.312-57.59l-0.653-1.448c-28.633-63.619-93.183-67.77-123.68-61.67-38.036 9.488-64.381 28.463-78.952 56.503-7.837 16.069-12.419 34.962-12.419 54.925 0 8.286 0.789 16.388 2.297 24.235l-203.437-0.801 8.471 27.531c10.674 33.885 4.151 63.28-18.128 82.34-14.017 11.5-32.133 18.471-51.877 18.471-12.959 0-25.216-3.003-36.114-8.35-52.631-26.046-38.23-104.32-38.061-105.083l4.829-25.414h-90.049zM1019.595-64h-401.197v83.103c-35.071-1.271-97.25 5.422-126.221 63.958-7.976 15.911-12.645 34.669-12.645 54.518 0 30.271 10.86 58.006 28.897 79.52 20.022 23.303 49.763 38.093 82.959 38.093 5.856 0 11.604-0.46 17.211-1.347l-0.62 206.355 28.802-11.097s41.34-15.248 72.514 1.101c16.942 8.471 28.209 25.414 34.478 50.404 1.355 6.946 8.471 54.131-36.341 75.309-22.872 6.184-53.284 8.471-61.67 2.795l-33.885-24.397v158.75h406.618zM661.093-21.644h316.146v692.352h-321.906v-46.507c2.921 0.15 6.342 0.236 9.783 0.236 20.025 0 39.371-2.902 57.643-8.309l1.445-0.652c63.619-28.633 67.77-93.183 61.67-123.68-9.488-38.036-28.463-64.381-56.503-78.952-16.067-7.828-34.955-12.404-54.912-12.404-8.26 0-16.338 0.784-24.161 2.282l0.8-203.436-27.531 8.471c-33.885 10.589-63.28 4.236-82.34-18.128-11.5-14.017-18.471-32.133-18.471-51.877 0-12.959 3.003-25.216 8.35-36.114 26.301-53.055 104.32-38.23 105.083-38.061l25.414 4.998zM184.249 415.979l-184.249 356.892 358.841 187.129 43.288-77.088c20.839 11.944 55.317 26.261 90.981 20.585 30.92-5.083 56.588-23.465 76.241-54.809 1.61-2.711 28.717-50.827 10.25-100.384-10.42-28.209-32.614-50.827-66.245-66.838l41.848-76.241-138.081-74.97-5.591 28.209s-9.911 46.676-41.424 64.212c-15.926 8.895-34.986 9.149-58.282 0.678h-0.847c-16.979-6.637-30.311-19.474-37.443-35.657-10.165-24.912-4.998-57.526 15.333-97.172l9.827-19.314zM57.181 754.827l146.128-282.769 38.883 18.721c-18.298 43.373-20.754 81.324-7.455 113.175 12.344 27.509 34.757 48.655 62.431 59.047 35.92 12.958 67.348 11.688 93.947-3.476 24.477-15.505 43.161-38.237 53.241-65.17l53.411 27.982-44.813 81.154 23.55 8.471c33.885 12.029 55.486 29.226 63.534 50.827 11.436 30.92-6.608 63.534-6.777 63.873-12.792 20.161-28.209 31.767-46.846 34.901-38.205 6.353-77.935-25.414-78.359-25.414l-19.484-15.672-46.592 82.933z" />
<glyph unicode="&#xe90b;" glyph-name="secure-box" horiz-adv-x="891" d="M631.952-64l-8.134 4.024c-288.792 142.298-234.681 481.177-234.082 484.516l2.397 14.213 14.041 3.082c150.175 33.134 209.167 111.304 209.766 112.503l15.24 20.805 17.723-18.751c92.554-98.633 222.095-121.236 223.379-121.407l17.124-2.825 0.771-17.124c17.124-376.722-247.010-474.841-249.664-475.783zM430.148 403.478c-6.764-61.389-18.408-304.974 204.115-420.73 41.354 18.408 220.468 115.328 214.047 413.71-83.371 20.653-155.556 60.403-214.4 114.45-27.131-28.060-90.574-79.432-203.762-107.429zM633.579 34.376l-8.134 4.024c-196.067 96.578-159.336 326.293-158.994 328.605l2.397 14.213 14.041 3.082c96.321 21.233 134.25 71.235 134.593 71.748l15.24 20.634 17.98-18.665c59.933-63.615 142.983-78.084 143.839-78.256l17.124-2.825 0.771-17.124c11.387-254.63-162.676-319.615-170.124-322.183zM507.034 346.028c-4.195-45.806-5.993-192.471 128.428-264.819 30.652 14.555 136.219 78.17 134.165 260.281-52.042 13.932-97.141 38.604-134.705 71.639-34.861-31.774-78.088-55.034-125.863-66.684zM607.857 60.736l5.614 382.931 42.805-0.628-5.614-382.931-42.805 0.628zM490.684 230.51l0.209 42.809 291.785-1.426-0.209-42.809-291.785 1.426zM366.876 117.084h-366.876v578.954h556.094v-127.315h-42.809v84.506h-470.475v-493.335h324.067v-42.809zM378.52 452.795h-202.488v221.838h42.809v-179.029h116.87v179.029h42.809v-221.838zM839.663 519.834h-42.809v397.357h-499.757l-267.644-248.466-29.11 31.336 279.888 259.938h559.433v-440.166zM193.858 696.301l260.741 257.485 30.080-30.46-260.741-257.485-30.080 30.46zM368.151 696.266l260.741 257.485 30.080-30.46-260.741-257.485-30.080 30.46zM521.253 680.039l265.64 263.976 30.176-30.366-265.64-263.976-30.176 30.366z" />
<glyph unicode="&#xe90c;" glyph-name="handshake" horiz-adv-x="1633" d="M1484.433 352.055c-0.46-0.011-1.003-0.017-1.547-0.017-26.913 0-50.238 15.362-61.683 37.796-19.629 35.977-222.484 372.173-239.863 400.93-6.827 8.069-26.378 34.137-22.861 63.929 2.549 19.259 13.608 35.504 29.21 45.051 27.158 17.833 58.612 35.611 91.237 51.345 26.341 13.256 74.132 17.704 108.476-42.708 31.033-54.309 235.647-403.435 237.923-406.435l0.828-1.552c4.986-9.221 7.916-20.184 7.916-31.832 0-23.657-12.087-44.491-30.423-56.663-31.284-20.846-81.869-51.258-84.041-52.5l-3.31-1.655c-9.026-3.609-19.488-5.701-30.438-5.701-0.5 0-0.999 0.004-1.498 0.013zM1312.404 908.278c-0.096 0.003-0.208 0.005-0.321 0.005-1.526 0-2.98-0.306-4.305-0.86l-1.374-0.697c-35.233-16.946-64.613-33.648-92.771-52.063-3.226-2.349-3.64-5.349-3.743-6.487 1.114-9.759 5.28-18.382 11.506-25.060l1.735-1.939 1.345-2.276c9.103-14.068 221.268-365.781 241.957-403.952 3.755-6.913 10.961-11.527 19.244-11.527 3.141 0 6.127 0.664 8.826 1.858 9.378 5.738 52.824 32.013 79.72 49.909 4.414 2.995 7.277 7.99 7.277 13.654 0 2.882-0.741 5.592-2.044 7.947-14.129 24.018-206.847 352.455-237.88 406.35-11.896 21.62-23.172 25.137-29.171 25.137zM1238.338 190.578c-22.344 0-49.757 8.586-85.032 31.033-82.756 51.722-214.751 134.478-214.751 134.478l27.62 43.757s131.892-82.756 214.544-134.478c60.619-37.964 72.411-23.792 95.583 4.241l2.793 3.31c14.172 16.965 17.896 21.517-27.309 69.101-31.033 32.895-145.443 107.376-237.095 167.167-53.067 34.654-98.893 64.55-124.134 83.273-41.378 31.033-72.411 37.24-87.204 38.378-114.513-160.133-222.199-158.995-276.922-143.685-19.47 3.751-35.219 16.867-42.581 34.377-11.728 32.758 13.099 68.136 44.546 112.825 11.586 16.448 23.585 33.516 34.654 51.722 53.688 87.618 104.893 116.479 165.512 133.030 54.205 14.793 270.301 32.068 330.092-2.586 31.033-17.793 111.1-18.93 154.547-15.517l4.034-51.722c-13.137-1.034-130.030-9.207-184.546 22.344-37.757 21.827-229.234 14.172-290.576-2.586-51.102-13.965-89.583-36.413-134.478-110.065-11.896-19.448-24.93-37.964-36.413-54.309-14.999-21.31-37.24-52.964-38.171-64.55 2.232-1.244 4.816-2.273 7.538-2.953 51.943-14.632 133.974-3.253 227.799 133.604l6.103 8.793 10.344 1.965c5.896 1.034 59.895 9.103 136.547-47.688 24.103-17.793 71.48-48.826 121.651-81.514 98.79-64.446 210.82-137.582 246.302-174.822 51.722-54.826 69.929-89.376 29.585-137.788l-2.69-3.207c-19.965-24.206-42.309-45.929-77.894-45.929zM1140.065 102.443c-79.135 0-208.131 91.962-268.129 138.306l31.654 41.378c116.065-89.687 229.027-142.443 245.164-126.306l35.585 35.585-20.689 26.482 40.757 31.861 48.826-62.067-67.86-67.86c-11.059-10.779-26.189-17.427-42.871-17.427-0.857 0-1.71 0.018-2.559 0.052zM1033.31 19.48c-74.377 0-188.58 81.618-225.923 109.858l31.033 41.378c76.446-57.826 175.856-111.1 203.372-98.169 24.909 10.344 43.006 32.594 47.319 59.451l51.781-1.832c-5.325-46.556-34.911-85.129-75.626-103.122-9.911-4.856-20.617-7.526-31.943-7.564zM897.28-38.242c-73.756 0-151.029 36.206-155.167 38.171l22.137 46.757c30.413-14.379 120.927-47.274 173.373-26.689 16.126 6.074 28.637 18.551 34.622 34.25l48.134-18.837c-11.386-29.5-34.302-52.382-63.076-63.468-17.428-6.563-36.71-10.215-56.845-10.215-1.117 0-2.232 0.011-3.344 0.034zM1304.542 316.056l-28.654 43.033c53.067 35.275 102.721 82.239 104.272 98.376l51.722-4.758c-4.965-51.309-98.686-117.617-127.341-136.651zM144.099 348.848c-0.238-0.003-0.518-0.005-0.8-0.005-9.792 0-19.084 2.136-27.438 5.967l-2.072 1.383s-16.551 10.344-72.411 43.136c-20.299 11.168-34.988 30.403-39.837 53.272-7.126 35.38 13.356 67.241 19.149 75l231.716 401.366c19.758 33.62 68.274 31.033 73.446 31.033h4.552l118.755-53.481 2.896-2.483c15.015-12.147 24.871-30.159 26.059-50.498-0.067-22.475-8.45-42.787-22.204-58.205-17.51-29.395-206.814-348.419-236.606-397.452-22.758-37.861-52.136-49.033-75.204-49.033zM139.237 401.398c4.758-1.448 19.861-3.207 35.792 23.482 31.033 51.102 235.751 395.987 237.923 399.504l1.552 2.586 2.069 2.172c5.676 5.902 9.454 13.666 10.331 22.288-0.376 4.727-2.531 8.726-5.759 11.521l-102.949 45.327c-0.532 0.030-1.154 0.047-1.78 0.047-7.049 0-13.597-2.143-19.029-5.813l0.12 0.077-234.82-404.573c-6.531-8.868-10.452-20.009-10.452-32.065 0-1.202 0.039-2.395 0.116-3.578 0.509-2.425 2.164-10.183 15.922-18.562 46.033-27.309 65.17-39.102 70.963-42.412zM620.669 696.526c-31.033 0-144.823 38.999-210.303 62.584l17.379 48.722c79.342-28.344 175.856-59.274 192.097-59.584l2.69-51.722zM282.818 309.746c-5.276 42.102-63.101 96.617-82.756 112.444l32.171 40.447c9.517-7.551 93.1-76.032 102.1-146.478zM343.437 155.303c-51.722 25.965-81.308 57.102-87.514 93.1-0.629 3.868-0.988 8.327-0.988 12.87 0 21.741 8.229 41.559 21.742 56.511 54.347 62.925 100.483 88.062 140.62 76.993 47.791-13.137 59.377-70.756 60.619-77.273l-50.998-9.207 25.447 4.552-25.344-4.552c-1.965 10.344-10.344 33.102-23.482 36.619-6.62 1.759-32.689 2.586-88.445-62.067l-0.931-1.034c-4.631-5.612-7.44-12.877-7.44-20.799 0-1.567 0.11-3.107 0.322-4.615 3.394-17.619 24.496-37.067 59.564-54.549zM455.881 71.202c-49.24 0-82.135 14.586-97.859 43.343-32.275 59.274 31.033 149.271 39.723 161.477 58.653 87.101 114.824 127.651 166.753 120.203 47.067-6.724 73.032-50.481 80.997-75.411 2.808-7.008 4.437-15.132 4.437-23.636 0-26.757-16.125-49.748-39.188-59.785l-9.938 23.836-10.344 23.792c10.344 4.965 7.034 15.93 5.689 20.068-3.207 10.344-16.448 36.723-38.999 39.93-13.965 1.965-53.274-3.621-116.789-98.169l-0.621-0.931c-21.827-29.792-48.516-84.308-36.309-106.548 6.724-12.31 31.033-18.103 66.308-15.93l3.207-51.722q-8.793-0.517-17.068-0.517zM558.602-4.105c-28.997 0.81-55.32 11.629-75.787 29.105-15.241 11.838-25.621 29.657-27.634 49.936-4.886 50.472 39.285 107.056 97.524 176.157 31.654 37.447 57.412 54.309 82.756 54.619 31.033 0 51.205-22.034 72.411-45.723l7.345-8.172c14.876-15.417 24.041-36.43 24.041-59.584s-9.165-44.167-24.065-59.61l-37.733 35.404 18.93-17.689-19.034 17.482c6.341 6.282 10.266 14.993 10.266 24.62s-3.926 18.337-10.264 24.617l-7.761 8.485c-12.517 13.965-25.447 28.551-33.102 28.551v0c-3.207 0-16.034-2.793-44.481-36.309-35.378-42.102-88.756-105.1-85.135-137.064 0.647-6.249 3.989-11.607 8.827-14.954 11.497-10.734 26.899-17.299 43.835-17.299 2.805 0 5.567 0.18 8.277 0.529 13.288 2.818 24.44 11.491 30.595 23.201l45.531-24.58c-13.627-25.281-37.43-43.585-65.778-49.542-6.296-1.362-12.823-2.112-19.513-2.18zM675.184-64.103c-23.456 0.751-45.239 7.259-64.184 18.147-15.131 7.41-26.898 21.34-31.607 38.214-10.447 39.843 19.035 85.565 42.724 122.391l8.172 12.827c16.635 28.316 45.458 47.933 79.074 51.679 1.938 0.128 3.65 0.176 5.374 0.176 29.005 0 54.809-13.706 71.289-34.994 13.887-15.481 22.285-35.79 22.285-58.062 0-21.044-7.499-40.337-19.97-55.353-21.815-48.684-48.608-78.062-81.503-89.648-9.34-3.408-20.123-5.38-31.367-5.38-0.101 0-0.202 0-0.303 0zM715.941 127.373h-2.172c-16.959-2.684-31.089-12.895-39.065-27.038l-8.727-13.719c-14.275-22.137-40.861-63.412-36.309-80.687 0-1.241 0.931-3.517 6.207-6.207 22.137-11.586 39.309-14.586 53.895-9.517 19.137 6.724 37.033 28.654 52.964 65.274l1.759 3.931 2.793 3c5.8 6.267 9.359 14.683 9.359 23.93 0 9.564-3.806 18.24-9.987 24.593-6.999 9.658-18.064 16.013-30.635 16.54z" />
</font></defs></svg>